{
    "data": {
        "id": "b21",
        "title": "two",
        "text": "Sample two",
        "authorUsername": "Ann",
        "createdOn": 26,
        "updatedOn": "2019-11-25T18:00:26.032Z",
        "tags" : ["random"]
    },
    "links": [{
            "rel": "self",
            "href": "https://aboard4u.herokuapp.com/api/message/b21"
        },
        {
            "rel": "edit",
            "href": "https://aboard4u.herokuapp.com/api/message/b21"
        },
        {
            "rel": "collection",
            "href": "https://aboard4u.herokuapp.com/api/message"
        },
        {
            "rel": "author",
            "href": "https://aboard4u.herokuapp.com/api/user/Ann",
            "title": "Ann"
        },
        {
            "rel": "edit-form",
            "href": "https://aboard4u.herokuapp.com/edit-message.html?id=http%3A%2F%2Flocalhost%3A3001%2Fapi%2Fmessage%2Fb21"
        }
    ]
}