{
    "definitions": {},
    "$schema": "http://json-schema.org/draft-07/schema#",
    "$id": "https://aboard4u.herokuapp.com/schemas/user/newUserForm.schema.json",
    "type": "object",
    "title": "User",
    "description": "A user that can author messages",
    "required": [
        "username",
        "name",
        "email",
        "password"
    ],
    "properties": {
        "username": {
            "$id": "#/properties/username",
            "type": "string",
            "title": "username",
            "description": "The username of the user",
            "default": "",
            "examples": [
                "Mary"
            ],
            "pattern": "^[a-zA-Z]+[\\-\\w]*$"
        },
        "password": {
            "$id": "#/properties/password",
            "type": "string",
            "title": "password",
            "description": "The password",
            "default": "",
            "examples": [
                "Af4$89gs!"
            ],
            "pattern": "^[\\w\\-\\.!\\$#]+$"
        },
        "name": {
            "$id": "#/properties/name",
            "type": "string",
            "title": "Name",
            "description": "The Name of the user",
            "default": "",
            "examples": [
                "Mary Smith"
            ],
            "pattern": "^[A-Z]+[a-zA-Z\\- 0-9]*$"
        },
        "email": {
            "$id": "#/properties/email",
            "type": "string",
            "format": "email",
            "title": "Email",
            "description": "The email of the user",
            "default": "",
            "examples": [
                "mary@contoso.com"
            ]
        },
        "description": {
            "$id": "#/properties/description",
            "type": "string",
            "title": "About me",
            "description": "A short note about the user",
            "default": "",
            "examples": [
                "Mary loves Javascript and is passionate about APIs"
            ],
            "pattern": "^[ \\w\\.!?,;:\\-=><\\/&%\\$\\+\\*~#\\(\\)]*$"
        }
    }
}