{
    "@context": {
        "name": "https://schema.org/name"
    },
    "@id": "https://aboard4u.herokuapp.com/api/user/Mary",
    "username": "Mary",
    "name": "Mary Smith",
    "email": "mary@contoso.com",
    "description": "Mary loves Javascript and his passionate about APIs",
    "createdOn": "2019-11-25T17:38:18.285Z",
    "updatedOn": "2019-11-25T17:38:18.285Z"
}