{
	"info": {
		"_postman_id": "327ae610-6c28-475e-a5f5-a00127fb3d9a",
		"name": "ABoard4U-Authz_Basic_Digest",
		"schema": "https://schema.getpostman.com/json/collection/v2.1.0/collection.json"
	},
	"item": [
		{
			"name": "validate account (Basic auth)",
			"event": [
				{
					"listen": "test",
					"script": {
						"id": "90f3f16f-d2a1-4431-987d-e7142746cf07",
						"exec": [
							"let res = pm.response.json();",
							"pm.test(\"Content has right username\", function () {",
							"    pm.expect(res.username).to.eql('Mary');",
							"});",
							""
						],
						"type": "text/javascript"
					}
				}
			],
			"request": {
				"auth": {
					"type": "basic",
					"basic": [
						{
							"key": "password",
							"value": "{{password}}",
							"type": "string"
						},
						{
							"key": "username",
							"value": "{{username}}",
							"type": "string"
						}
					]
				},
				"method": "GET",
				"header": [],
				"url": {
					"raw": "{{server_rest}}/authz/me",
					"host": [
						"{{server_rest}}"
					],
					"path": [
						"authz",
						"me"
					]
				}
			},
			"response": []
		},
		{
			"name": "validate account (Digest auth)",
			"event": [
				{
					"listen": "test",
					"script": {
						"id": "fff2faea-be61-475f-ab71-15d040c850ca",
						"exec": [
							"let res = pm.response.json();",
							"pm.test(\"Content has right username\", function () {",
							"    pm.expect(res.username).to.eql('Mary');",
							"});",
							""
						],
						"type": "text/javascript"
					}
				}
			],
			"request": {
				"auth": {
					"type": "digest",
					"digest": [
						{
							"key": "password",
							"value": "{{password}}",
							"type": "string"
						},
						{
							"key": "username",
							"value": "{{username}}",
							"type": "string"
						},
						{
							"key": "algorithm",
							"value": "MD5",
							"type": "string"
						}
					]
				},
				"method": "GET",
				"header": [],
				"url": {
					"raw": "{{server_rest}}/authz/me",
					"host": [
						"{{server_rest}}"
					],
					"path": [
						"authz",
						"me"
					]
				}
			},
			"response": []
		},
		{
			"name": "validate account (Basic auth) (hyper)",
			"event": [
				{
					"listen": "test",
					"script": {
						"id": "e151c778-9561-40d5-acee-5c9f684cc9a2",
						"exec": [
							"let res = pm.response.json();",
							"pm.test(\"Content has right username\", function () {",
							"    pm.expect(res.data.username).to.eql('Mary');",
							"});",
							""
						],
						"type": "text/javascript"
					}
				}
			],
			"request": {
				"auth": {
					"type": "basic",
					"basic": [
						{
							"key": "password",
							"value": "{{password}}",
							"type": "string"
						},
						{
							"key": "username",
							"value": "{{username}}",
							"type": "string"
						}
					]
				},
				"method": "GET",
				"header": [
					{
						"key": "Accept",
						"value": "application/vnd.pagsousa.hyper+json",
						"type": "text"
					}
				],
				"url": {
					"raw": "{{server_rest}}/authz/me",
					"host": [
						"{{server_rest}}"
					],
					"path": [
						"authz",
						"me"
					]
				}
			},
			"response": []
		},
		{
			"name": "validate account (Digest auth) (hyper)",
			"event": [
				{
					"listen": "test",
					"script": {
						"id": "c131dfbf-f8bb-477a-951c-43f3db956bd6",
						"exec": [
							"let res = pm.response.json();",
							"pm.test(\"Content has right username\", function () {",
							"    pm.expect(res.data.username).to.eql('Mary');",
							"});",
							""
						],
						"type": "text/javascript"
					}
				}
			],
			"request": {
				"auth": {
					"type": "digest",
					"digest": [
						{
							"key": "password",
							"value": "{{password}}",
							"type": "string"
						},
						{
							"key": "username",
							"value": "{{username}}",
							"type": "string"
						},
						{
							"key": "algorithm",
							"value": "MD5",
							"type": "string"
						}
					]
				},
				"method": "GET",
				"header": [
					{
						"key": "Accept",
						"value": "application/vnd.pagsousa.hyper+json",
						"type": "text"
					}
				],
				"url": {
					"raw": "{{server_rest}}/authz/me",
					"host": [
						"{{server_rest}}"
					],
					"path": [
						"authz",
						"me"
					]
				}
			},
			"response": []
		},
		{
			"name": "validate account with unknown user",
			"event": [
				{
					"listen": "test",
					"script": {
						"id": "036c41fe-091c-4e74-9593-786f94c9d890",
						"exec": [
							"pm.test(\"Status code is 401\", function () { pm.response.to.have.status(401); });",
							""
						],
						"type": "text/javascript"
					}
				}
			],
			"request": {
				"auth": {
					"type": "basic",
					"basic": [
						{
							"key": "username",
							"value": "__fake__",
							"type": "string"
						},
						{
							"key": "password",
							"value": "xx45xx12",
							"type": "string"
						}
					]
				},
				"method": "GET",
				"header": [],
				"url": {
					"raw": "{{server_rest}}/authz/me",
					"host": [
						"{{server_rest}}"
					],
					"path": [
						"authz",
						"me"
					]
				}
			},
			"response": []
		},
		{
			"name": "validate account with wrong password",
			"event": [
				{
					"listen": "test",
					"script": {
						"id": "4d6f9dcf-eaa5-4df0-bdab-2203c6068739",
						"exec": [
							"pm.test(\"Status code is 401\", function () { pm.response.to.have.status(401); });",
							""
						],
						"type": "text/javascript"
					}
				}
			],
			"request": {
				"auth": {
					"type": "basic",
					"basic": [
						{
							"key": "password",
							"value": "xx45xx12",
							"type": "string"
						},
						{
							"key": "username",
							"value": "{{username}}",
							"type": "string"
						}
					]
				},
				"method": "GET",
				"header": [],
				"url": {
					"raw": "{{server_rest}}/authz/me",
					"host": [
						"{{server_rest}}"
					],
					"path": [
						"authz",
						"me"
					]
				}
			},
			"response": []
		}
	],
	"protocolProfileBehavior": {}
}